*** Life<FredkinCell> 5x5 ***

Generation = 0, Population = 5.
-----
----0
-----
-000-
--0--

Generation = 1, Population = 12.
----0
---0-
-0000
01110
--1--

Generation = 2, Population = 10.
-----
-0-10
--1--
12-2-
0-2-0

Generation = 3, Population = 15.
-0-00
0-021
00-00
-3---
10-0-

Generation = 4, Population = 10.
--0--
1-1-2
--1--
1-1-0
2---0

Generation = 5, Population = 15.
00100
-----
-0-0-
2-2-1
30201

*** Life<FredkinCell> 5x5 ***

Generation = 0, Population = 5.
-----
-----
-----
-----
00000

Generation = 1, Population = 7.
-----
-----
-----
00000
1---1

Generation = 2, Population = 8.
-----
-----
00000
-----
2-0-2

Generation = 3, Population = 9.
-----
00000
1---1
-0-0-
-----

Generation = 4, Population = 12.
00000
-----
20002
-----
-0-0-

Generation = 5, Population = 9.
1---1
-----
3---3
0-0-0
2---2

*** Life<FredkinCell> 1x10 ***

Generation = 0, Population = 8.
0-0000-000

Generation = 1, Population = 4.
--1--1-1-1

Generation = 2, Population = 3.
-0-00-----

Generation = 3, Population = 4.
0--111----

Generation = 4, Population = 5.
-012-20---

*** Life<FredkinCell> 10x1 ***

Generation = 0, Population = 8.
-
0
0
-
0
0
0
0
0
0

Generation = 1, Population = 5.
0
1
1
-
1
-
-
-
-
1

Generation = 2, Population = 4.
1
-
2
-
-
0
-
-
0
-

Generation = 3, Population = 5.
-
-
-
0
1
-
0
0
-
1

Generation = 4, Population = 5.
-
-
2
1
2
-
1
1
-
-

Generation = 5, Population = 6.
-
1
3
-
3
-
2
2
0
-

*** Life<FredkinCell> 20x20 ***

Generation = 0, Population = 20.
-----------0--0-----
----0---------------
-------------------0
----------0-0-------
--------------------
------------0-------
-------------------0
--------------------
-----------000------
-0------------------
---------0----------
--0-----------------
--------------------
--------------------
-0---0--------------
-0------------------
-----0--------------
----0---------------
--------------------
--0-----------------

Generation = 2, Population = 60.
---------0-0110-0--0
--0---0---0-0-------
-----------0--0--0-0
----0---0-0---0-----
--------------------
------------0-0-----
-----------010---0-0
-0----------1-------
----------12-210---0
--10----------------
-------0----00------
01--0---------------
-0---0---0----------
-10-----------------
-----0-0------------
---00---------------
-1-0-0-0------------
-0----0-------------
-----0--------------
0-0-----------------

Generation = 4, Population = 67.
-------0--1----0--10
0---0---0---2-------
-----------0--21-0-0
------0-0-----2-0---
------------100-----
-0--0---0-------0---
---------0-----0-0-0
--1-------1-3-------
-------001-----210--
-1---0------1-------
-1-----------2-----0
21----0-------------
-----0-----000------
-1--0---------------
-----0--------------
-2---1--------------
-3-------0----------
1-1-----0-----------
-1---0--------------
00--0-0-------------

Generation = 6, Population = 130.
-----0-00112312-1132
0-----0-0-------0---
-------0-01--12-1-00
00--0-0-0-0---2---0-
---------00-3--10---
---1--0-0---2---0-0-
--------00-12-1-10--
0----0----1---0-1---
-1---112--23--2---10
133---11----1-0-----
---0-1-000--12--0--0
4-10-0--0---1-------
-0-0-0-0-012--10---0
1-21-1--------------
-1-0-2-0-0-000------
141-2--00-----------
-5-1---0---0--------
1-1--1----0---------
-3-----0-0----------
2011----------------

Generation = 8, Population = 55.
---0--1----231----3-
-10-----------------
---------2-1-3------
----0-----0-1-----2-
-------------------0
--------------------
-0---1-------13-----
-0------------------
---01------5--2-----
-----1---1----------
-2---------------1-0
--3-0-------3-------
--------------------
--4---------1-------
-3---4---0---2-----0
----22---0----------
-7---1-----01-------
--1---------0-------
-5---1---0----------
--1-1-----0---------

Generation = 10, Population = 128.
-1-0111-1-2433401-3-
1--0------0-3-----1-
---0--00-2-11--2--11
-1----0-0-0-1-3-0---
-0---0---1-0--0--0-0
-1--0-----0-2-----0-
---01--0----3-512--0
---1-2---0----------
-31---2--3--1-2-11-1
-5420------12-------
----1------0--00-1--
4---010--00-3-0-----
-----0---1---1---0--
1-4-02---10-1-0-----
-3---6-----10--0-0-0
--21--1----1--------
-------1-11---0----0
1-1-01---1----0-----
-5---1------1-------
3-1---0-0-0---------

*** Life<FredkinCell> 10x10 ***

Generation = 0, Population = 19.
-----0-0--
0---0-0-0-
-0--0-----
--000---0-
-0-0------
-0--------
----------
-0-------0
----------
-0-------0

Generation = 1, Population = 31.
0-----0---
---010-0-0
-----00---
-011-0-0-0
0101----0-
0100------
---------0
0-0-----0-
----------
0-0-----0-

Generation = 2, Population = 31.
-0-00----0
0-01------
-00--110--
--2--10-0-
---200----
-21-0---00
-0-0------
---0---0--
----------
---0---0-0

Generation = 3, Population = 45.
--0-10--0-
-----000-0
-11-0-21--
--3--2-0-0
-1031----0
0-2-1--011
0101---000
-0010-0-0-
---------0
--0-0-0---

Generation = 4, Population = 35.
-0--2-----
-0--1-1-0-
02-----20-
-0--0-01-1
-2--------
1---200-22
-2--0-----
--121--010
-0-0------
-0-----0-0

Generation = 5, Population = 51.
0100300-0-
--012--010
131---2---
--31--1-0-
-30--0-00-
-2-0--1-33
------00--
-023-001-1
0101----0-
0100--0---

*** Life<FredkinCell> 8x9 ***

Generation = 0, Population = 19.
0-00----0
----0-0--
-0-00----
-0--0----
-----00--
-0--0-0-0
-0----0--
---------

Generation = 1, Population = 41.
--11--00-
00001--00
01-1100--
010-1-0--
----01-00
0100-0---
010-00100
-0----0--

Generation = 2, Population = 30.
0----01--
-11---0-1
12------0
-210--1-0
------011
-211-----
---0112-1
-1--0-1-0

Generation = 3, Population = 33.
--1-01-00
0-20--1-2
2301---0-
---11020-
-----1---
03---0-0-
----2---2
0-0-102-1

Generation = 4, Population = 37.
00211211-
113-----3
--12-001-
02---1--0
00-0-----
141--1---
-100312-3
------3-2

Generation = 5, Population = 31.
-13----2-
-2401--0-
-3-3---20
----12---
110-0---1
---1-2--0
--1--2--4
-1001-4-3

*** Life<FredkinCell> 12x12 ***

Generation = 0, Population = 20.
-----0------
0----0------
-------0----
-------0-0--
-----0-00---
-0-0--------
---0---00--0
---00-------
-0----------
-----0----0-
------------
------------

Generation = 1, Population = 55.
0---010-----
-0--0100----
0----00100--
-----00-0-0-
-0-00---1---
0--100-----0
-00---01100-
-00-10-00--0
0-0000----0-
-0--0-0--0-0
-----0----0-
------------

Generation = 2, Population = 47.
---0-2------
0-00-----0--
-----1-211--
00-0---0-0-0
-----0002000
-0--11-0-0--
-----0122-10
--10--0---0-
-------00--0
----1--00---
-0----------
-----0----0-

Generation = 3, Population = 68.
0--1--0--0--
--1-0--0-10-
-00-0----200
11--0-----01
0--0--------
0-0122---10-
-000--2330-1
-0211-10-010
--000----0--
-0-0-00--0-0
0-0-00-00-0-
-0--0-0--0-0

Generation = 4, Population = 48.
-0---2--01--
0-2011---2--
-----1-21---
----10------
---100---0-0
10---3-0--1-
---10--4-1-2
0-------01--
-0-----00---
---1--1--10-
---0---11--0
---010----0-

Generation = 5, Population = 84.
---1-3001-0-
-03--200030-
0-000--32---
-----10000-1
000211002-0-
210-24-101-0
-0021-25321-
---11--0--10
--00---1-00-
-00210-0021-
--0--0-22-0-
--0--10000--
