*** Life<ConwayCell> 17x6 ***

Generation = 0, Population = 10.
......
......
.*....
......
......
.*..*.
..*...
.....*
...*..
..*...
......
.*....
......
....*.
......
......
.*....

Generation = 1, Population = 0.
......
......
......
......
......
......
......
......
......
......
......
......
......
......
......
......
......

Generation = 2, Population = 0.
......
......
......
......
......
......
......
......
......
......
......
......
......
......
......
......
......

Generation = 3, Population = 0.
......
......
......
......
......
......
......
......
......
......
......
......
......
......
......
......
......

*** Life<ConwayCell> 14x6 ***

Generation = 0, Population = 6.
......
.*....
..*...
......
.*..*.
......
......
......
......
......
......
..*...
......
..*...

Generation = 1, Population = 0.
......
......
......
......
......
......
......
......
......
......
......
......
......
......

Generation = 2, Population = 0.
......
......
......
......
......
......
......
......
......
......
......
......
......
......

*** Life<ConwayCell> 9x16 ***

Generation = 0, Population = 23.
................
........*.......
..***..........*
..*...*.**...**.
....*..*.....*..
...*.*.....*....
...*.....*......
.........*.....*
......*....*....

Generation = 1, Population = 27.
................
...*............
..**...***....*.
..*.**.**....**.
...******...***.
...*............
....*.....*.....
..........*.....
................

Generation = 2, Population = 20.
................
..**....*.......
..*...**.*...**.
..*.........*..*
..*.....*...*.*.
...*..**.....*..
................
................
................

*** Life<ConwayCell> 15x6 ***

Generation = 0, Population = 17.
......
.**...
.*....
....*.
....*.
..*..*
..**..
......
...**.
......
.*....
...*.*
..**..
......
...*..

*** Life<ConwayCell> 14x7 ***

Generation = 0, Population = 15.
.......
.......
.......
......*
.***..*
.......
.......
...**..
.....**
.......
......*
.*....*
..*..*.
....*..

Generation = 1, Population = 12.
.......
.......
.......
..*....
..*....
..*....
.......
....**.
....**.
.....**
.......
.....**
.....*.
.......

Generation = 2, Population = 12.
.......
.......
.......
.......
.***...
.......
.......
....**.
.......
....***
.......
.....**
.....**
.......

Generation = 3, Population = 10.
.......
.......
.......
..*....
..*....
..*....
.......
.......
......*
.....*.
....*..
.....**
.....**
.......

Generation = 4, Population = 10.
.......
.......
.......
.......
.***...
.......
.......
.......
.......
.....*.
....*.*
....*.*
.....**
.......

Generation = 5, Population = 10.
.......
.......
.......
..*....
..*....
..*....
.......
.......
.......
.....*.
....*.*
....*.*
.....**
.......

*** Life<ConwayCell> 8x7 ***

Generation = 0, Population = 17.
.......
....*.*
....*..
..**.**
...*...
..*.*..
..*..**
.**..**

*** Life<ConwayCell> 11x20 ***

Generation = 0, Population = 17.
....................
..*............*....
......*.............
...............*....
..................**
....................
...........**.......
......*........*....
.*..................
...*....*......*.*..
....*....*..........

Generation = 1, Population = 1.
....................
....................
....................
....................
....................
....................
....................
....................
................*...
....................
....................
