*** Life<Cell> 18x12 ***

Generation = 0, Population = 12.
---0--------
---00-------
---00-------
---0--------
------------
---------0--
------------
------------
--0------0--
------------
------0-----
------------
------------
---0--------
-------0----
------------
------------
------------

Generation = 1, Population = 35.
--01--------
--01-0------
--01-0------
--01--------
---0-----0--
--------0-0-
---------0--
--0------0--
-0-0----0-0-
--0---0--0--
-----0-0----
------0-----
---0--------
--0-0--0----
---0--0-0---
-------0----
------------
------------

Generation = 2, Population = 44.
-0--00------
-01*-10-----
-01*-10-----
-0-*00---0--
---10-------
---0---0---0
--0------1--
---------1--
0---0-00---0
------------
--0-0---00--
---0--------
------00----
-0---0------
-----0---0--
---0--------
-------0----
------------

Generation = 3, Population = 100.
01--1-------
01*.0*-0----
01*.0*-0-0--
010.1---0-0-
-00*---0-0-0
---1--0-000-
-0-----00*00
0-0-0-000*00
-0-0--11000-
0-0---0000-0
-0-0-0-0110-
------0000--
-0-0--110---
0-0-01-0-0--
-0-0010-0-0-
--0-00-0-0--
---0--0-0---
-------0----

Generation = 4, Population = 41.
---1*--0----
1-..1.-100--
1-..1.-10---
--1.*--0----
--1.-----1--
---*00-----0
---00-0--.--
---0-----.--
0----0*----0
---0-----1--
--0----1--1-
------------
--0------0--
-------1----
---1--1----0
------------
------------
---0--------

Generation = 5, Population = 89.
0-0**001-0--
*1..-*0*110-
*1..-*0*----
01*..001-0--
-0*.-0-00-00
---.11---00-
--01-0-0-.-0
0-01-0---.-0
-0--01.1-00-
0---00000--0
-0----0-1--0
-------0-00-
-0-0---10-0-
--00----00-0
--0-01----0-
---0--0----0
---0--------
--0-0-------

Generation = 6, Population = 85.
111**11-01--
.-.*-.-.-*10
.*..1.-.--0-
--..*11*0--0
--**--0-1--1
-0-.**0--1-0
00--0---0.-1
-0--0-0--.-1
0----*.*0110
-0-0-111---1
--0-0-1-*--1
---0---1-1--
0-010-1---1-
-----1---1--
-01-1*--0--0
---1---0----
---1--0----0
-0-0-0------

Generation = 7, Population = 97.
*--**-*-1--0
*-..1.0.-.*1
...**.0*0-10
-1*.*-*.-0-1
--**00-0*-0-
-1-.*.-00---
1101---0-.0-
010110---.--
-0-0-...---1
--0-0-*-01--
-----0*-*-1*
0-010-0-0--0
--1*10---0-0
00-00*-----0
01*1**1---0-
-0-*-0------
-00-0-----0-
0--1-------0

Generation = 8, Population = 73.
.11**-.--1-1
.1..-.-.-..*
.**.*.1.10-1
0*...1..0--*
-0..-10-.1--
-*0..*01-1--
--1-0001-.-1
--1--100-.01
-1-10...011-
---0-1*--*--
0--001*-*1**
---*--1-1---
---.--------
---1-.---1-1
--.-..*0-0--
---.-1------
--1------0--
------------

*** Life<Cell> 14x20 ***

Generation = 0, Population = 14.
--00----------0-----
--------------------
--------------------
0-0--------0--------
--------------------
--------0----0------
--------0-----------
-0------------------
----------------0---
--------------------
--------0---0-------
---------0----------
--------------------
--------------------

Generation = 2, Population = 45.
01**10------0-0-0---
0-1--------0--------
--10----------0-----
--0-0---00----------
--------1-----------
000---0---0----0----
------0---0-----0---
---0----1----0------
------------0-0---0-
-0-------0----------
------0-------0-0---
-------0---0--------
--------0---0-------
---------0----------

Generation = 4, Population = 48.
0-**1-10--0-------0-
---1----0----0------
--.*----1-----0-----
01*-0-01-------0----
--00----.-----0-0---
----0----1--0----0--
----0---*-----------
001--0---1-0--------
------------0-------
--------1----0------
----0-------0---0---
-0---0-------0------
----------------0---
---------0----------

Generation = 6, Population = 94.
01.*.-**010-0-0-0-0-
*-1-00-0--10--------
11..00-0.---0-0---0-
--*-00*.----0-------
10-*-0--*---1---0-0-
--*-*1--11*---1----0
---1---1*11-1-0-0---
--.--------00----0--
--------1-0-0-0-0---
0-0---0--10--0-0----
--0---0---0-0---0-0-
-------000-0-0-0----
----0-------0-0-0-0-
-0---0-0-0-0-0------

*** Life<Cell> 9x21 ***

Generation = 0, Population = 11.
----------------00---
----0---------------0
---------------------
----------------0----
---------------------
-----------------0---
0--------------------
-------------------0-
0----0-------0-------

Generation = 1, Population = 34.
----0----------0110-0
---0-0----------00-0-
----0-----------0---0
---------------0-0---
----------------00---
0---------------0-0--
-0---------------0-0-
-----0-------0----0-0
-0--0-0-----0-0----0-

Generation = 2, Population = 32.
--------------01**10-
--0---0---------1-0-0
----------------10---
----0---------0--10-0
0--------------------
---------------01----
--0--0-------0-------
---------------------
0-00-0-0---0-0-0-----

Generation = 3, Population = 60.
--0---0------01-*.*1-
-0-0-0-0------0---10-
--0-0-0-------00--0--
0--0-0-------0-0--1--
-0--0---------00000-0
0-0--0-------001*0---
-0-00-0-----0-000----
0--0---0---0---0-----
--11----0-0-----0----

Generation = 4, Population = 38.
------------01--.**-0
0---0---0-------10*-0
0---------------10---
------------0------00
0----0-------0--11---
----0--------1--.---0
0-0-10-------0-------
---------------10----
00*-0------------0---

Generation = 5, Population = 67.
0---0---0--01*1-*.*-1
10-0-0-0-0--00-0--.-1
10--0---0---0--0---0-
-----0-----0------111
-0----0------100**00-
--0010------0-0-.0-0-
-----10-----01000---0
-0---0-------00*1----
1-.--0---------0--0--

Generation = 6, Population = 69.
1---------01*.*1...-*
*---------0-1-01--.-*
--0--0------1-011--10
0-------0-0--00-0---*
0--000-0---0-*1-*.11-
--1---0----01--1.101-
-000-*10---0-*-1-----
--0-0---------1.-00-0
--.-010------0-1-0-0-

Generation = 7, Population = 99.
*0-------0--*.*-...1.
.00--0---010--1*--.-*
-0-00-0-0--0*01*-00*1
10000---------10-111*
10-1-10----10.-0*.---
0-*01010--01*1-*.*1-0
01-11**10-010*0*0--00
--1010-0---0-0-*1-10-
--.1--10----0-0--10--

Generation = 8, Population = 51.
*----0--01--.**-...-.
.11---------1-*.10.0*
-----0------*--.--1.*
--------0------10-***
*------------.-1..-1-
--.-*----0--.-0..**11
-*-*-..-1---1.-.--0--
0-*-*------1-1-.-0---
--**--*-0----0---*---

Generation = 9, Population = 91.
.-0-0-001*0-.**1...1.
.**0----00-0*0***1*1*
-00-0-0-0--0.01.--*..
1----0-0-0--0-1-1-*.*
.0--0---00---.-*..1-0
00.-.0----0-.1-..*.**
-*0*1..1-----*0.-01-0
-0.-*00---0-0*1.11---
10**-1.--0-0010-0.0--

Generation = 10, Population = 84.
.-10--1-*.1-...-.*.**
...10---1-1-.-..*-.**
---0-0-01001.-*.--..*
-00-0-0--10--0*1--*..
.101-1--1---0*-**.*1-
11.0.-100--1.*-.**..*
-.-*-..-1----.-*-1*01
--.0.11----1-.*.--1-0
*1**0**-0-011*--1.-0-

*** Life<Cell> 12x20 ***

Generation = 0, Population = 13.
--------------------
-------------0------
--------------0-----
-----------0-0-0----
--------------------
---------0----------
---0----------------
--------------0----0
--------------------
--------------------
---0------0--------0
-0------------------

Generation = 3, Population = 88.
---------------0----
----------------0---
-------------0------
---0------0-0-0-0-0-
--0-0--0---0-010-0-0
-0-0-00-0---01110-0-
0-0-0-00-0--000000--
-0---0--0--0-0-011-1
-0---------00-0-000-
010--0--0-0-00-0-00-
0-000-00-0-0-00-0--1
01--00--0---0----0-0

Generation = 6, Population = 77.
---0------0-0-0-0-0-
-------0-0----00-0-0
-0---0--0---0-1-0---
-------0---011.*0--0
-------1------*---00
-0-1-----01--1*1--0-
-1------11------0--0
-1-1-0--0--*01---.*1
---0--0--------0----
-.-0-0-1--0--01--10-
----00..-0---1-*0-0*
-.---1-1-0--0-*-01-.

Generation = 9, Population = 79.
--0-00---0---------0
----0---0------1---1
-00100--------.---1-
0--1--0.0--.....1--1
-0-0-0-.---00-.-0---
----------.--...1**0
---0--0--1*00----001
-.0.00-0-0*.-.-0-..-
-0-0---------001--1-
0.---------001.*-.11
---01*.*0--0-.-.0--*
-.0-0*1---0-00**0.1.

*** Life<Cell> 23x18 ***

Generation = 0, Population = 20.
--0---------------
--------------0---
--0--0------------
------------------
------------------
----0-------------
------------0-----
------------------
-0----------------
---0--------------
----------0-------
------------------
-0----------------
------------------
-00----------0-0--
-0----------------
-0----------------
--------------0---
-----------------0
------------------
-----------0------
------------------
-0----------------

Generation = 6, Population = 160.
-001-.*100--0-----
------0-0-------0-
*-*--1111-01--1---
1-001---0-0-------
-**0000-100-0---0-
00*--10---1-0---1-
11001011*-0-0-1---
0--01--01-----0---
-0-*-1110-0-00000-
-*1--00--0--------
11-1----0-01*10*10
----0--0------1---
1-*--0-0-0000010-0
------------0---0-
**--*----*--10-0-0
-1-----0--1---0---
1*-11*10--00-0---0
-1-0-1--0---0-----
--1-00-0---0---0--
-0-0------0---0---
-10------0-0-0----
-1----------0---0-
-0---0---0-0-0----

*** Life<Cell> 14x7 ***

Generation = 0, Population = 22.
0------
-00----
-0-----
---0---
--0--0-
0-0----
--00---
--0--00
-------
--0----
--0---0
---0-0-
----0--
--00---

Generation = 3, Population = 45.
-1*00--
1------
--1*010
---0-*0
--*0*00
--01--1
*-*-*--
00-1-1.
0----0-
1-**---
1-1-101
--0----
0-0-00-
1-.--0-

*** Life<Cell> 24x18 ***

Generation = 0, Population = 13.
------------------
--0--0------------
------------------
------------------
------------------
------------------
------------------
------------------
------------------
------------------
------------------
-------0-----0----
-0--0-------------
------------------
-0----------------
------------------
------------------
-----0-------0----
------------------
------------------
------0-----------
-0--------0-------
------------------
------------0-----

Generation = 1, Population = 49.
--0--0------------
-0-00-0-----------
--0--0------------
------------------
------------------
------------------
------------------
------------------
------------------
------------------
-------0-----0----
-0--0-0-0---0-0---
0-00-0-0-----0----
----0-------------
0-0---------------
-0----------------
-----0-------0----
----0-0-----0-0---
-----0-------0----
------0-----------
-0---0-0--0-------
0-0---0--0-0------
-0--------0-0-----
-----------0-0----

Generation = 2, Population = 43.
------------------
0--11--0----------
------------------
--0--0------------
------------------
------------------
------------------
------------------
------------------
-------0-----0----
-0--0-------------
-----0---0-0---0--
-011--0-----------
-------0-----0----
-0-00-------------
-----0-------0----
-0----------------
---0---0---0---0--
------0-----------
-0---0----0--0----
----0---0---------
---0----0---------
------0-----------
-0----------0-0---
