8

5 5
5
1 4
4 4
0 3
3 0
3 2
7 1

5 5
5
4 4
1 4
1 2
4 0
2 2
7 1

1 10
8
0 7
0 5
0 9
0 0
0 8
0 4
0 3
0 2
4 1

10 1
8
8 0
2 0
4 0
7 0
1 0
5 0
6 0
9 0
20 1

10 10
20
3 0
4 5
6 9
6 5
9 1
0 4
4 1
8 2
8 1
8 3
0 9
1 2
9 2
1 4
5 2
3 2
5 1
0 1
2 9
7 4
20 1

10 10
20
1 6
9 4
2 4
9 1
3 8
7 7
3 2
0 7
8 8
4 4
2 1
4 8
7 9
1 0
3 4
4 1
9 3
5 1
0 5
7 1
20 1

10 10
20
1 6
0 2
9 1
0 8
0 0
3 4
5 6
2 3
9 4
5 4
6 6
6 1
5 8
1 4
4 6
0 3
2 4
8 5
2 1
3 1
20 1

10 10
20
5 3
6 5
9 5
4 0
7 4
9 6
4 8
0 0
6 3
3 7
7 9
8 1
0 5
6 1
2 7
6 7
9 1
1 5
3 9
5 1
20 1
