8

18 11
28
12 6
2 0
4 9
12 9
16 2
0 0
8 1
0 2
16 9
10 4
9 1
0 7
17 2
1 8
17 2
12 2
13 7
9 9
16 3
8 7
3 3
9 6
13 8
14 9
2 3
2 3
2 6
10 5
12 10

5 13
9
1 6
4 0
4 2
0 0
1 12
4 9
2 1
2 0
3 9
11 9

14 3
11
0 0
0 2
0 0
2 2
12 0
1 0
7 0
2 2
6 0
3 0
3 0
12 4

8 13
13
7 2
3 9
7 7
1 6
2 7
6 10
4 6
1 11
4 0
2 2
0 1
1 8
2 11
11 7

3 16
18
1 15
1 5
2 12
1 5
1 15
0 9
0 15
0 11
1 15
0 2
0 10
0 14
1 0
2 5
0 14
2 15
1 0
2 5
17 3

5 2
7
3 0
2 1
1 1
1 0
1 0
3 0
4 1
7 1

2 2
3
1 1
1 1
0 0
19 1

6 11
5
3 7
0 2
5 0
2 2
0 9
2 3
